<?xml version="1.0" encoding="UTF-8"?>
<svg width="11px" height="12px" viewBox="0 0 11 12" version="1.1" xmlns="http://www.w3.org/2000/svg" xmlns:xlink="http://www.w3.org/1999/xlink">
    <title>277C7D69-1885-4ABB-A478-1FEE67A56570</title>
    <g id="02---category" stroke="none" stroke-width="1" fill="none" fill-rule="evenodd" opacity="0.937918527">
        <g id="desktop/category/categoryJamesV2" transform="translate(-50.000000, -450.000000)" fill="#000000" fill-rule="nonzero">
            <g id="Group-3" transform="translate(45.000000, 279.000000)">
                <g id="icon/control/close-(cross)" transform="translate(5.000000, 171.500000)">
                    <path d="M1.04818595,0.305723914 L5.5,4.75334999 L9.95181405,0.305723914 C10.1569358,0.100795166 10.4893473,0.100951595 10.6942761,0.306073308 C10.8992048,0.51119502 10.8990484,0.843606598 10.6939267,1.04853535 L6.23712963,5.50012963 L10.6939267,9.95146465 C10.8990484,10.1563934 10.8992048,10.488805 10.6942761,10.6939267 C10.4893473,10.8990484 10.1569358,10.8992048 9.95181405,10.6942761 L5.5,6.24665001 L1.04818595,10.6942761 C0.843064239,10.8992048 0.510652662,10.8990484 0.305723914,10.6939267 C0.100795166,10.488805 0.100951595,10.1563934 0.306073308,9.95146465 L4.76112963,5.50012963 L0.306073308,1.04853535 C0.100951595,0.843606598 0.100795166,0.51119502 0.305723914,0.306073308 C0.510652662,0.100951595 0.843064239,0.100795166 1.04818595,0.305723914 Z" id="close"></path>
                </g>
            </g>
        </g>
    </g>
</svg>